{
  "USER_SCREENING_INTIALIZATION": [
    "",
    "",
    "",
    "[[INIT]] Hi! The job you just applied for requires candidate screening. Would you like to go ahead with it? It’ll only take a few minutes."
  ],
  "USER_SCREENING_JOB_LOC_DSNT_PREF_CURRENT_LOC": [
    "",
    "",
    "[0, 0] This job is in {{ LOC }} , Are you willing to relocate?"
  ],
  "USER_SCREENING_JOB_LOC_DSNT_PREF_CURRENT_LOC_YES": [
    "", 
    "", 
    "",
    ""
  ],
  "USER_SCREENING_JOB_LOC_DSNT_PREF_CURRENT_LOC_NO": [
    "",
    "",
    "",
    "Application rejected"
  ],
  "USER_SCREENING_JOB_LOC_PREF_CURRENT_LOC": [
    "",
    "",
    "",
    "[1, 1] This job is in {{ LOC }} area. Is that closer to your place?"
  ],
  "USER_SCREENING_JOB_LOC_PREF_CURRENT_LOC_YES": ["", "", "", ""],
  "USER_SCREENING_JOB_LOC_PREF_CURRENT_LOC_NO": [
    "",
    "",
    "",
    "Application Reject"
  ],
  "USER_SCREENING_JOB_LOC_CURRENT_LOC": [
    "",
    "",
    "",
    "[0, 1] This job is in {{ LOC }} location. Are you comfortable with this location?"
  ],
  "USER_SCREENING_JOB_LOC_CURRENT_LOC_YES": ["", "", "", ""],
  "USER_SCREENING_JOB_LOC_CURRENT_LOC_NO": ["", "", "", "Application Reject"],
  "USER_SCREENING_JOB_LOC_DSNT_PREF_LOC": [
    "",
    "",
    "",
    "[1, 0] This job is in {{ LOC }} location, one of your preferred cities. Confirm, if you’d like to go ahead and apply."
  ],
  "USER_SCREENING_JOB_LOC_DSNT_PREF_LOC_YES": ["", "", "", ""],
  "USER_SCREENING_JOB_LOC_DSNT_PREF_LOC_NO": ["", "", "", "Application Reject"],
  "USER_SCREENING_JOB_DSNT_LOC": [
    "",
    "",
    "",
    "[_, _] Oh-uh! I see you didn’t mention your current or preferred location and this job is in {{ LOC }} area. Are you comfortable with this location?"
  ],
  "USER_SCREENING_JOB_DSNT_LOC_YES": ["", "", "", ""],
  "USER_SCREENING_JOB_DSNT_LOC_NO": ["", "", "", "Application Reject"],
  "USER_SCREENING_JOB_DSNT_CURRENT_LOC": [
    "",
    "",
    "The job you've applied for is in {{ LOC }}, I see it doesnt match with your preferred location.",
    "[0, _] Are you willing to relocate to {{ LOC }} for thid job? Should i add  {{ LOC }} as your preferred location? "
  ],
  "USER_SCREENING_JOB_DSNT_CURRENT_LOC_YES": ["", "", "", ""],
  "USER_SCREENING_JOB_DSNT_CURRENT_LOC_NO": ["", "", "", "Application Reject"],
  "USER_SCREENING_JOB_DSNT_PREF_LOC": [
    "",
    "",
    "I see your current location is {{ LOC}} and you have applied for a job in {{ LOC }}.",
    "[_, 0] Are you willing to relocate or travel to  {{ LOC }} for this job? "
  ],
  "USER_SCREENING_JOB_DSNT_PREF_LOC_YES": ["", "", "", ""],
  "USER_SCREENING_JOB_DSNT_PREF_LOC_NO": ["", "", "", "Application Reject"],
  "USER_SCREENING_JOB_CURRENT_DSNT_PREF_LOC": [
    "",
    "",
    "We're glad to see that you've find a job in your current city, which is {{ LOC }}",
    "[_, 1] Are you sure you'll be comfortable working in {{ LOC }}? "
  ],
  "USER_SCREENING_JOB_CURRENT_DSNT_PREF_LOC_YES": ["", "", "", ""],
  "USER_SCREENING_JOB_CURRENT_DSNT_PREF_LOC_NO": [
    "",
    "",
    "",
    "Application Reject"
  ],
  "USER_SCREENING_JOB_PREF_DSNT_CURRENT_LOC": [
    "",
    "",
    "It seems your job application is on track, lets confirm everything and move ahead.",
    "[1, _] Your job location is in {{ LOC }}, do you wish to continue? "
  ],
  "USER_SCREENING_JOB_PREF_DSNT_CURRENT_LOC_YES": ["", "", "", ""],
  "USER_SCREENING_JOB_PREF_DSNT_CURRENT_LOC_NO": [
    "",
    "",
    "",
    "Application Reject"
  ],
  "USER_SCREENING_SKILL_JOB_MANDATORY_SKILL_AND_USER_HAVE_SKILL": [
    "",
    "",
    "",
    "[1] {{ SKILL_NAME}}"
  ],
  "USER_SCREENING_SKILL_JOB_MANDATORY_SKILL_AND_USER_HAVE_SKILL_YES": [
    "",
    "",
    "",
    ""
  ],
  "USER_SCREENING_SKILL_JOB_MANDATORY_SKILL_AND_USER_HAVE_SKILL_NO": [
    "",
    "",
    "",
    "Application Rejected"
  ],
  "USER_SCREENING_SKILL_JOB_MANDATORY_SKILL_AND_USER_DSNT_HAVE_SKILL": [
    "",
    "",
    "",
    "[-] {{ SKILL_NAME}}"
  ],
  "USER_SCREENING_SKILL_JOB_MANDATORY_SKILL_AND_USER_DSNT_HAVE_SKILL_YES": [
    "",
    "",
    "",
    ""
  ],
  "USER_SCREENING_SKILL_JOB_MANDATORY_SKILL_AND_USER_DSNT_HAVE_SKILL_NO": [
    "",
    "",
    "",
    "Application Rejected"
  ],
  "USER_SCREENING_SKILL_JOB_MANDATORY_SKILL_AND_USER_DSNT_HAVE_SKILL_EXP": [
    "",
    "",
    "",
    "[0] {{ SKILL_NAME }}"
  ],
  "USER_SCREENING_SKILL_JOB_MANDATORY_SKILL_AND_USER_DSNT_HAVE_SKILL_EXP_YES": [
    "",
    "",
    "",
    ""
  ],
  "USER_SCREENING_SKILL_JOB_MANDATORY_SKILL_AND_USER_DSNT_HAVE_SKILL_EXP_NO": [
    "",
    "",
    "",
    "Application Rejected"
  ],
  "USER_SCREENING_CAND_AVAIL": [
    "",
    "",
    "",
    "[1] Will you be able to join us in  {{ JOIN_DAYS }} , if appointed?"
  ],
  "USER_SCREENING_CAND_AVAIL_YES": ["", "", "", ""],
  "USER_SCREENING_CAND_AVAIL_NO": ["", "", "", "Application Rejected"],
  "USER_SCREENING_AGE_REQ_AGE_NO_MENTION": [
    "",
    "",
    "We are happy to provide any type of assistance possible but before moving ahead,  let me check on some eligibility requirements.",
    "Please tell me your {{ DOB }}?"
  ],
  "USER_SCREENING_AGE_REQ_AGE_NO_MENTION_YES": ["", "", "", ""],
  "USER_SCREENING_AGE_REQ_AGE_NO_MENTION_NO": [
    "",
    "",
    "",
    "Application Rejected"
  ],
  "USER_SCREENING_AGE_REQ_AGE_HAVE_MENTION": [
    "",
    "",
    "We are glad to see that your age is in the range with the company's requirement, Let's take out a second to confirm it",
    "Can you confirm that {{ DOB }} is your DOB ?"
  ],
  "USER_SCREENING_AGE_REQ_AGE_HAVE_MENTION_YES": ["", "", "", ""],
  "USER_SCREENING_AGE_REQ_AGE_HAVE_MENTION_NO": [
    "",
    "",
    "",
    "Application Rejected"
  ],
  "USER_SCREENING_AGE_REQ_AGE_GREATER": [
    "",
    "",
    "We are happy to provide any type of assistance possible but before moving ahead, let me check on some eligibility requirements",
    "Can you confirm that {{ DOB }} is your DOB?"
  ],
  "USER_SCREENING_AGE_REQ_AGE_GREATER_YES": ["", "", "", ""],
  "USER_SCREENING_AGE_REQ_AGE_GREATER_NO": ["", "", "", "Application Rejected"],
  "USER_SCREENING_WSHIFT_DIFF_WORK_SHIFT_REQ": [
    "",
    "",
    "You've applied for a {{ JOB_NAME }} job in {{ LOC }}, we are glad that we could help. Let's screen your profile quickly now",
    "[0] This company require {{ WORK_SHIFT }} shift, will you be avialble to report at that time?"
  ],
  "USER_SCREENING_WSHIFT_DIFF_WORK_SHIFT_REQ_YES": ["", "", "", ""],
  "USER_SCREENING_WSHIFT_DIFF_WORK_SHIFT_REQ_NO": [
    "",
    "",
    "",
    "Application Rejected"
  ],
  "USER_SCREENING_EDU_REQ_EDUCATION_BUT_NOT_MENTION": [
    "",
    "",
    "",
    "[-] You didn’t mention details about your education. Are you a {{ EDUCATION }}?"
  ],
  "USER_SCREENING_EDU_REQ_EDUCATION_BUT_NOT_MENTION_YES": ["", "", "", ""],
  "USER_SCREENING_EDU_REQ_EDUCATION_BUT_NOT_MENTION_NO": [
    "",
    "",
    "",
    "Application Rejected"
  ],
  "USER_SCREENING_EDU_REQ_EDUCATION_IN_EDU_RANGE": [
    "",
    "",
    "You're on a roll, lets confirm the details and move ahead",
    "[1] This job requires {{ EDUCATION }} and you’re one. Confirm to continue."
  ],
  "USER_SCREENING_EDU_REQ_EDUCATION_IN_EDU_RANGE_YES": ["", "", "", ""],
  "USER_SCREENING_EDU_REQ_EDUCATION_IN_EDU_RANGE_NO": [
    "",
    "",
    "",
    "Application Rejected"
  ],
  "USER_SCREENING_EDU_REQ_EDUCATION_OUT_EDU_RANGE": [
    "",
    "",
    "",
    "[0] This job requires minimum {{ EDUCATION }} level education. Do you wish to continue and apply?"
  ],
  "USER_SCREENING_EDU_REQ_EDUCATION_OUT_EDU_RANGE_YES": ["", "", "", ""],
  "USER_SCREENING_EDU_REQ_EDUCATION_OUT_EDU_RANGE_NO": [
    "",
    "",
    "",
    "Application Rejected"
  ],
  "USER_SCREENING_EXP_REQ_EXP_IN_RANGE": [
    "",
    "",
    "",
    "[1] Great! This job requires a minimum work experience of {{ EXPERIENCE }} years and you seem to have that. Should I go ahead and notify the recruiter? "
  ],
  "USER_SCREENING_EXP_REQ_EXP_IN_RANGE_YES": ["", "", "", ""],
  "USER_SCREENING_EXP_REQ_EXP_IN_RANGE_NO": [
    "",
    "",
    "",
    "Application Rejected"
  ],
  "USER_SCREENING_EXP_REQ_EXP_OUT_EDU_RANGE": [
    "",
    "",
    "",
    "[0] This job requires a minimum work experience of {{EXPERIENCE}} years. Do you have that?"
  ],
  "USER_SCREENING_EXP_REQ_EXP_OUT_EDU_RANGE_YES": ["", "", "", ""],
  "USER_SCREENING_EXP_REQ_EXP_OUT_EDU_RANGE_NO": [
    "",
    "",
    "",
    "Application Rejected"
  ],
  "USER_SCREENING_EXP_REQ_EXP_NO_MENTION": [
    "",
    "",
    "",
    "[-] Uh-oh! It seems you didn’t mention work experience in your profile. is it minimum {{ EXPERIENCE }}"
  ],
  "USER_SCREENING_EXP_REQ_EXP_NO_MENTION_YES": ["", "", "", ""],
  "USER_SCREENING_EXP_REQ_EXP_NO_MENTION_NO": [
    "",
    "",
    "",
    "Application Rejected"
  ],

  "USER_SCREENING_PRE_LOCATION": [
    "",
    "",
    "",
    ""
  ],
  "USER_SCREENING_PRE_SKILL": [
    "",
    "",
    "",
    "This job requires you to have the following skills. How many of these are you familiar with?"
  ],
  "USER_SCREENING_PRE_EDUCATION": [
    "",
    "",
    "",
    ""
  ],
  "USER_SCREENING_PRE_EXPERIENCE": [
    "",
    "",
    "",
    ""
  ],
  "USER_SCREENING_PRE_WORK_SHIFT": ["", "", "", ""],
  "USER_SCREENING_PRE_CAND_AVAIL": [
    "",
    "",
    "",
    ""
  ],
  "USER_INTERVIEW_INTIALIZATION": ["", "", "", "Let's Start with your interview"],
  "USER_INTERVIEW_CONTACT_INFO": ["", "", "", "Please share your contact info so that we can connect you with recruiter"],
  "USER_INTERVIEW_CONTACT_INFO_YES": ["", "", "", ""],
   
  "USER_INTERVIEW_SCHEDULED": ["", "", "", "Thank you for your Interview!"],
  "USER_SCREENING_END": ["", "", "", "Thank you for your screening!"]
}
