<svg xmlns="http://www.w3.org/2000/svg" xmlns:xlink="http://www.w3.org/1999/xlink" width="48" height="48" viewBox="0 0 48 48">
  <defs>
    <style>
      .cls-1 {
        fill: #edeff1;
      }

      .cls-2 {
        fill: #797979;
        fill-rule: evenodd;
        filter: url(#filter);
      }
    </style>
    <filter id="filter" x="610.5" y="1429.22" width="30.063" height="24.47" filterUnits="userSpaceOnUse">
      <feFlood result="flood" flood-color="#acaeb5"/>
      <feComposite result="composite" operator="in" in2="SourceGraphic"/>
      <feBlend result="blend" in2="SourceGraphic"/>
    </filter>
  </defs>
  <rect class="cls-1" width="48" height="48"/>
  <path id="Shape_32_copy" data-name="Shape 32 copy" class="cls-2" d="M625.53,1445.84l-15.023-7.94v-0.74l15.023-7.94,15.036,7.95v0.73Zm9.818-3.74v4.7c-0.007.02-.016,0.04-0.024,0.07l-9.033,4.77h-1.522l-9.057-4.79v-4.75l9.818,5.19Zm2.446-1.31,1.189-.66v9.24l0.774,2.59-1.171,1.72h-0.4l-1.171-1.72,0.775-2.59v-8.58Z" transform="translate(-601 -1417)"/>
</svg>
