<svg xmlns="http://www.w3.org/2000/svg" xmlns:xlink="http://www.w3.org/1999/xlink" width="12.906" height="18.094" viewBox="0 0 12.906 18.094">
  <defs>
    <style>
      .cls-1 {
        fill: #ff6137;
        fill-rule: evenodd;
        filter: url(#filter);
      }
    </style>
    <filter id="filter" x="884.969" y="771.844" width="12.906" height="18.094" filterUnits="userSpaceOnUse">
      <feFlood result="flood" flood-color="#0bd0bb"/>
      <feComposite result="composite" operator="in" in2="SourceGraphic"/>
      <feBlend result="blend" in2="SourceGraphic"/>
    </filter>
  </defs>
  <path id="Shape_52_copy_2" data-name="Shape 52 copy 2" class="cls-1" d="M895.991,773.7a6.548,6.548,0,0,0-9.133,0,7.1,7.1,0,0,0-.607,8.9l5.174,7.327,5.166-7.317A7.106,7.106,0,0,0,895.991,773.7Zm-4.507,6.731a2.312,2.312,0,1,1,2.358-2.312A2.338,2.338,0,0,1,891.484,780.433Z" transform="translate(-884.969 -771.844)"/>
</svg>
