<svg xmlns="http://www.w3.org/2000/svg" width="37.84" height="37.813" viewBox="0 0 37.84 37.813">
  <defs>
    <style>
      .cls-1 {
        fill: none;
        stroke: #0b9ed0;
        stroke-width: 2px;
      }

      .cls-1, .cls-2 {
        fill-rule: evenodd;
      }

      .cls-2 {
        fill: #0b9ed0;
      }
    </style>
  </defs>
  <path id="Ellipse_1_copy_7" data-name="Ellipse 1 copy 7" class="cls-1" d="M1882.08,18.084A17.916,17.916,0,1,1,1864.17,36,17.916,17.916,0,0,1,1882.08,18.084Z" transform="translate(-1863.16 -17.094)"/>
  <path id="v" class="cls-2" d="M1883.2,41.136l3.96-10.508h-1.7c-1.29,3.579-2.13,5.9-2.5,6.965a21.806,21.806,0,0,0-.66,2.1h-0.08a26.118,26.118,0,0,0-.89-2.838l-2.25-6.232h-1.69l3.96,10.508h1.85Z" transform="translate(-1863.16 -17.094)"/>
</svg>
