<svg xmlns="http://www.w3.org/2000/svg" xmlns:xlink="http://www.w3.org/1999/xlink" preserveAspectRatio="xMidYMid" width="12" height="13.938" viewBox="0 0 12 13.938">
  <defs>
    <style>
      .cls-1 {
        fill: #797979;
        filter: url(#color-overlay-1);
        fill-rule: evenodd;
      }
    </style>

    <filter id="color-overlay-1" filterUnits="userSpaceOnUse">
      <feFlood flood-color="#0bd0bb"/>
      <feComposite operator="in" in2="SourceGraphic"/>
      <feBlend in2="SourceGraphic" result="solidFill"/>
    </filter>
  </defs>
  <path d="M10.228,1.651 C9.096,0.577 7.591,-0.014 5.990,-0.014 C4.389,-0.014 2.884,0.577 1.752,1.651 C-0.343,3.637 -0.603,6.234 1.188,8.498 C1.188,8.498 2.198,9.641 3.292,10.879 C6.890,14.952 5.087,14.956 8.700,10.867 C9.786,9.638 10.785,8.507 10.785,8.507 C12.584,6.234 12.323,3.637 10.228,1.651 ZM6.045,7.691 C4.839,7.691 3.858,6.760 3.858,5.617 C3.858,4.473 4.839,3.542 6.045,3.542 C7.252,3.542 8.233,4.473 8.233,5.617 C8.233,6.760 7.252,7.691 6.045,7.691 Z" class="cls-1"/>
</svg>
