<svg xmlns="http://www.w3.org/2000/svg" xmlns:xlink="http://www.w3.org/1999/xlink" preserveAspectRatio="xMidYMid" width="141.156" height="87.531" viewBox="0 0 141.156 87.531">
  <defs>
    <style>
      .cls-1 {
        fill: #acaeb5;
      }

      .cls-1, .cls-2, .cls-3, .cls-4, .cls-5 {
        filter: url(#color-overlay-1);
        fill-rule: evenodd;
      }

      .cls-2 {
        fill: #a1a1a1;
      }

      .cls-3, .cls-4, .cls-5 {
        fill: #323232;
      }

      .cls-3 {
        opacity: 0.4;
      }

      .cls-4 {
        opacity: 0.6;
      }

      .cls-5 {
        opacity: 0.3;
      }
    </style>

    <filter id="color-overlay-1" filterUnits="userSpaceOnUse">
      <feFlood flood-color="#acaeb5"/>
      <feComposite operator="in" in2="SourceGraphic"/>
      <feBlend in2="SourceGraphic" result="solidFill"/>
    </filter>
  </defs>
  <g>
    <path d="M113.142,82.172 L95.112,64.142 C99.581,58.693 102.275,51.713 102.275,44.106 C102.275,26.658 88.117,12.500 70.668,12.500 C53.204,12.500 39.062,26.658 39.062,44.106 C39.062,61.555 53.204,75.713 70.668,75.713 C78.275,75.713 85.239,73.034 90.688,68.565 L108.718,86.580 C109.943,87.804 111.917,87.804 113.142,86.580 C114.366,85.371 114.366,83.381 113.142,82.172 ZM70.668,69.422 C56.694,69.422 45.337,58.065 45.337,44.106 C45.337,30.147 56.694,18.775 70.668,18.775 C84.627,18.775 95.999,30.147 95.999,44.106 C95.999,58.065 84.627,69.422 70.668,69.422 Z" class="cls-1"/>
    <path d="M66.043,54.442 L64.055,52.453 C67.892,48.615 74.138,48.615 77.976,52.453 L75.987,54.442 C73.246,51.700 68.785,51.700 66.043,54.442 Z" class="cls-2"/>
    <path d="M85.062,39.900 L82.660,37.500 L85.062,35.101 L83.461,33.500 L81.062,35.900 L78.661,33.500 L77.062,35.101 L79.461,37.500 L77.062,39.900 L78.661,41.500 L81.062,39.099 L83.461,41.500 L85.062,39.900 Z" class="cls-2"/>
    <path d="M66.062,39.900 L63.660,37.500 L66.062,35.101 L64.461,33.500 L62.062,35.900 L59.661,33.500 L58.062,35.101 L60.461,37.500 L58.062,39.900 L59.661,41.500 L62.062,39.099 L64.461,41.500 L66.062,39.900 Z" class="cls-2"/>
    <path d="M140.733,55.564 C140.450,55.849 140.109,55.991 139.712,55.991 L126.411,55.991 C126.014,55.991 125.673,55.849 125.390,55.564 C125.107,55.278 124.965,54.935 124.965,54.535 L124.965,50.164 L131.037,50.164 L131.037,51.621 C131.037,51.779 131.094,51.916 131.209,52.031 C131.323,52.146 131.459,52.204 131.616,52.204 L134.507,52.204 C134.664,52.204 134.799,52.146 134.914,52.031 C135.028,51.916 135.086,51.779 135.086,51.621 L135.086,50.164 L141.158,50.164 L141.158,54.535 C141.158,54.935 141.016,55.278 140.733,55.564 ZM131.905,51.330 L131.905,50.164 L134.218,50.164 L134.218,51.330 L131.905,51.330 ZM124.965,45.793 C124.965,45.393 125.107,45.050 125.390,44.765 C125.673,44.479 126.014,44.337 126.411,44.337 L129.592,44.337 L129.592,42.880 C129.592,42.637 129.676,42.430 129.845,42.261 C130.013,42.091 130.218,42.006 130.459,42.006 L135.664,42.006 C135.904,42.006 136.109,42.091 136.278,42.261 C136.447,42.431 136.531,42.637 136.531,42.880 L136.531,44.337 L139.712,44.337 C140.109,44.337 140.450,44.479 140.733,44.765 C141.016,45.050 141.158,45.393 141.158,45.793 L141.158,49.290 L124.965,49.290 L124.965,45.793 ZM130.748,44.337 L135.375,44.337 L135.375,43.171 L130.748,43.171 L130.748,44.337 Z" class="cls-3"/>
    <path d="M40.774,19.743 C40.526,19.993 40.228,20.118 39.880,20.118 L28.242,20.118 C27.895,20.118 27.597,19.993 27.349,19.743 C27.101,19.494 26.977,19.193 26.977,18.843 L26.977,15.019 L32.290,15.019 L32.290,16.293 C32.290,16.432 32.340,16.551 32.441,16.652 C32.541,16.753 32.659,16.804 32.797,16.804 L35.327,16.804 C35.464,16.804 35.582,16.753 35.682,16.652 C35.782,16.551 35.833,16.432 35.833,16.293 L35.833,15.019 L41.146,15.019 L41.146,18.843 C41.146,19.193 41.022,19.494 40.774,19.743 ZM33.049,16.039 L33.049,15.019 L35.073,15.019 L35.073,16.039 L33.049,16.039 ZM26.977,11.194 C26.977,10.843 27.101,10.544 27.349,10.294 C27.597,10.044 27.895,9.920 28.242,9.920 L31.025,9.920 L31.025,8.645 C31.025,8.432 31.099,8.252 31.247,8.103 C31.394,7.954 31.574,7.880 31.784,7.880 L36.339,7.880 C36.549,7.880 36.728,7.954 36.876,8.103 C37.024,8.252 37.097,8.432 37.097,8.645 L37.097,9.920 L39.880,9.920 C40.228,9.920 40.526,10.044 40.774,10.294 C41.022,10.544 41.146,10.843 41.146,11.194 L41.146,14.254 L26.977,14.254 L26.977,11.194 ZM32.037,9.920 L36.086,9.920 L36.086,8.900 L32.037,8.900 L32.037,9.920 Z" class="cls-4"/>
    <path d="M9.856,60.102 C9.679,60.281 9.466,60.370 9.218,60.370 L0.905,60.370 C0.657,60.370 0.444,60.281 0.267,60.102 C0.090,59.924 0.002,59.710 0.002,59.459 L0.002,56.728 L3.797,56.728 L3.797,57.638 C3.797,57.737 3.832,57.822 3.904,57.894 C3.975,57.966 4.060,58.003 4.158,58.003 L5.965,58.003 C6.063,58.003 6.148,57.966 6.219,57.894 C6.291,57.822 6.327,57.737 6.327,57.638 L6.327,56.728 L10.122,56.728 L10.122,59.459 C10.122,59.710 10.033,59.924 9.856,60.102 ZM4.339,57.456 L4.339,56.728 L5.784,56.728 L5.784,57.456 L4.339,57.456 ZM0.002,53.996 C0.002,53.745 0.090,53.531 0.267,53.353 C0.444,53.175 0.657,53.085 0.905,53.085 L2.893,53.085 L2.893,52.175 C2.893,52.023 2.946,51.894 3.051,51.788 C3.156,51.682 3.285,51.628 3.435,51.628 L6.688,51.628 C6.839,51.628 6.967,51.682 7.072,51.788 C7.177,51.894 7.230,52.023 7.230,52.175 L7.230,53.085 L9.218,53.085 C9.466,53.085 9.679,53.175 9.856,53.353 C10.033,53.531 10.122,53.745 10.122,53.996 L10.122,56.181 L0.002,56.181 L0.002,53.996 ZM3.616,53.085 L6.507,53.085 L6.507,52.357 L3.616,52.357 L3.616,53.085 Z" class="cls-5"/>
    <path d="M120.733,13.564 C120.450,13.849 120.109,13.991 119.712,13.991 L106.411,13.991 C106.014,13.991 105.673,13.849 105.390,13.564 C105.107,13.278 104.965,12.935 104.965,12.535 L104.965,8.164 L111.037,8.164 L111.037,9.621 C111.037,9.779 111.094,9.916 111.209,10.031 C111.323,10.146 111.459,10.204 111.616,10.204 L114.507,10.204 C114.664,10.204 114.799,10.146 114.914,10.031 C115.028,9.916 115.086,9.779 115.086,9.621 L115.086,8.164 L121.158,8.164 L121.158,12.535 C121.158,12.935 121.016,13.278 120.733,13.564 ZM111.905,9.330 L111.905,8.164 L114.218,8.164 L114.218,9.330 L111.905,9.330 ZM104.965,3.794 C104.965,3.393 105.107,3.050 105.390,2.765 C105.673,2.479 106.014,2.337 106.411,2.337 L109.592,2.337 L109.592,0.880 C109.592,0.637 109.676,0.430 109.845,0.261 C110.013,0.091 110.218,0.006 110.459,0.006 L115.664,0.006 C115.904,0.006 116.109,0.091 116.278,0.261 C116.447,0.431 116.531,0.637 116.531,0.880 L116.531,2.337 L119.712,2.337 C120.109,2.337 120.450,2.479 120.733,2.765 C121.016,3.050 121.158,3.393 121.158,3.794 L121.158,7.290 L104.965,7.290 L104.965,3.794 ZM110.748,2.337 L115.375,2.337 L115.375,1.171 L110.748,1.171 L110.748,2.337 Z" class="cls-5"/>
  </g>
</svg>
