<svg xmlns="http://www.w3.org/2000/svg" xmlns:xlink="http://www.w3.org/1999/xlink" preserveAspectRatio="xMidYMid" width="33.437" height="32.13" viewBox="0 0 33.437 32.13">
  <defs>
    <style>
      .cls-1 {
        fill: #544cfa;
        filter: url(#color-overlay-1);
        fill-rule: evenodd;
      }
    </style>

    <filter id="color-overlay-1" filterUnits="userSpaceOnUse">
      <feFlood flood-color="#acaeb5"/>
      <feComposite operator="in" in2="SourceGraphic"/>
      <feBlend in2="SourceGraphic" result="solidFill"/>
    </filter>
  </defs>
  <path d="M33.056,19.363 L24.878,28.516 C23.980,29.311 22.819,29.752 21.617,29.752 L9.539,29.752 L7.154,32.131 L-0.002,24.993 L6.421,18.684 C7.630,17.448 9.394,16.664 11.364,16.664 C12.538,16.664 13.637,16.940 14.591,17.428 C15.307,17.809 16.236,17.864 17.152,17.864 C17.152,17.864 17.597,17.855 19.883,17.855 C21.201,17.855 22.676,18.617 22.676,20.234 C22.676,21.757 21.201,22.614 19.883,22.614 L16.118,22.614 C15.814,22.614 15.522,22.874 15.522,23.209 C15.522,23.493 15.832,23.814 16.118,23.814 L22.272,23.813 C22.272,23.813 28.524,18.481 29.613,17.853 C30.701,17.227 31.931,17.027 32.975,17.732 C33.527,18.107 33.555,18.921 33.056,19.363 ZM19.618,14.283 L12.829,7.509 C11.066,5.751 11.098,2.879 12.927,1.161 C13.758,0.381 14.822,0.006 15.894,0.006 C17.101,0.006 18.320,0.481 19.228,1.387 L19.618,1.778 L20.008,1.389 C20.917,0.481 22.136,0.006 23.343,0.006 C24.415,0.006 25.479,0.381 26.310,1.161 C28.138,2.879 28.171,5.751 26.408,7.509 L19.618,14.283 Z" class="cls-1"/>
</svg>
